…
glance(lm_fit)

## # A tibble: 1 x 12
##   r.squared adj.r.squared sigma statistic  p.value    df logLik   AIC   BIC
##       <dbl>         <dbl> <dbl>     <dbl>    <dbl> <dbl>  <dbl> <dbl> <dbl>
## 1     0.544         0.543  6.22      602. 5.08e-88     1 -1641. 3289. 3302.
## # ... with 3 more variables: deviance <dbl>, df.residual <int>, nobs <int>

To use the model to generate predictions, we typically use the predict() function.

predict(lm_fit, new_data = Boston)

## # A tibble: 506 x 1
##    .pred
##    <dbl>
##  1 29.8 
##  2 25.9 
##  3 30.7 
##  4 31.8 
##  5 29.5 
##  6 29.6 
##  7 22.7 
##  8 16.4 
##  9  6.12
## 10 18.3 
## # ... with 496 more rows

Notice how the predictions are returned as a tibble. This will always be the case for parsnip models, no matter what engine is used. This is very useful since consistency allows us to combine data sets easily.

By using the type argument of predict, we can specify a different prediction. In this example, type = "conf_int" returns a 95% confidence interval.

predict(lm_fit, new_data = Boston, type = "conf_int")

## # A tibble: 506 x 2
##    .pred_lower .pred_upper
##          <dbl>       <dbl>
##  1       29.0        30.6 
##  2       25.3        26.5 
##  3       29.9        31.6 
##  4       30.8        32.7 
##  5       28.7        30.3 
##  6       28.8        30.4 
##  7       22.2        23.3 
##  8       15.6        17.1 
##  9        4.70        7.54
## 10       17.7        18.9 
## # ... with 496 more rows

We can use the augment() function to add predictions to our original data set to evaluate performance.

augment(lm_fit, new_data = Boston) %>%
  dplyr::select(medv, .pred)

## # A tibble: 506 x 2
##     medv .pred
##    <dbl> <dbl>
##  1  24   29.8 
##  2  21.6 25.9 
##  3  34.7 30.7 
##  4  33.4 31.8 
##  5  36.2 29.5 
##  6  28.7 29.6 
##  7  22.9 22.7 
##  8  27.1 16.4 
##  9  16.5  6.12
## 10  18.9 18.3 
## # ... with 496 more rows
…
